{
    "schema_version": 2,
    "description": "ShowerShape",
    "corrections": [
        {
            "name": "ShowerShape",
            "version": 1,
            "inputs": [
                {
                    "name": "systematic",
                    "type": "string",
                    "description": "Systematic variation"
                },
                {
                    "name": "eta",
                    "type": "real",
                    "description": "Photon eta"
                },
                {
                    "name": "r9",
                    "type": "real",
                    "description": "Photon full 5x5 R9, ratio E3x3/ERAW, where E3x3 is the energy sum of the 3 by 3 crystals surrounding the supercluster seed crystal and ERAW is the raw energy sum of the supercluster"
                }
            ],
            "output": {
                "name": "Ecorr",
                "type": "real",
                "description": "Multiplicative correction to photon energy and pt"
            },
            "data": {
                "nodetype": "category",
                "input": "systematic",
                "content": [
                    {
                        "key": "nominal",
                        "value": {
                            "nodetype": "multibinning",
                            "inputs": ["eta", "r9"],
                            "edges": [
                                [0.0, 1.0, 1.5, 2.0, 6.0],
                                [0.0, 0.94, 999.0]
                            ],
                            "content": [1.0, 1.0, 1.0, 1.0, 1.0, 1.0, 1.0, 1.0],
                            "flow": "clamp"
                        }
                    }, 
                    {
                        "key": "up",
                        "value": {
                            "nodetype": "multibinning",
                            "inputs": ["eta", "r9"],
                            "edges": [
                                [0.0, 1.0, 1.5, 2.0, 6.0],
                                [0.0, 0.94, 999.0]
                            ],
                            "content": [0.9999, 0.9994, 1.0002, 0.9989, 1.0015, 1.0002, 1.0004, 1.0003],
                            "flow": "clamp"
                        }
                    },
                    {
                        "key": "down",
                        "value": {
                            "nodetype": "multibinning",
                            "inputs": ["eta", "r9"],
                            "edges": [
                                [0.0, 1.0, 1.5, 2.0, 6.0],
                                [0.0, 0.94, 999.0]
                            ],
                            "content": [1.0001, 1.0006, 0.9998, 1.0011, 0.9985, 0.9998, 0.9996, 0.9997],
                            "flow": "clamp"
                        }
                    }
                ]
            }
        }
    ]
}
